%YAML 1.1
%TAG !u! tag:unity3d.com,2011:
--- !u!1045 &1
EditorBuildSettings:
  m_ObjectHideFlags: 0
  serializedVersion: 2
  m_Scenes:
  - enabled: 1
    path: Assets/_Game/_Scenes/MasterScene.unity
    guid: 40cc1c934a9dd1f47ab86afe99aa9ce9
  - enabled: 0
    path: Assets/_Game/_Scenes/RulesScene.unity
    guid: dbce20b1a9a262947a8c8eef91309c41
  - enabled: 0
    path: Assets/_Game/_Scenes/IntroScene.unity
    guid: 4ca27f9b93555ae4c8a62efc95a6d9a4
  - enabled: 0
    path: Assets/_Game/_Scenes/GamePlayScene.unity
    guid: ed5ad2691096d2c4991978d7e74c1f5b
  - enabled: 0
    path: Assets/_Game/_Scenes/WinLoseScene.unity
    guid: 691910e74b676f24697d8d01867456d8
  - enabled: 0
    path: Assets/_Game/_Scenes/BlankScene.unity
    guid: 7a1ea66c91ac05c418612757ac2f7748
  - enabled: 1
    path: Assets/_Game/_Scenes/start_screen.unity
    guid: 07df99ec294234a1388199063b93e580
  - enabled: 1
    path: Assets/_Game/_Scenes/GameSceneNew.unity
    guid: 80978164fa947ca48b658c4c4c1f54d7
  - enabled: 0
    path: Assets/_Game/_Scenes/game scene.unity
    guid: a67723fdc13aa4782a7072e4f2d288b2
  - enabled: 1
    path: Assets/_Game/_Scenes/Player_one_wins.unity
    guid: b60401f8adcc746fdb95ac0b04594721
  - enabled: 1
    path: Assets/_Game/_Scenes/player_two_wins.unity
    guid: b9ece4de59148488f97fc23076fe4e67
